compare_sers
…
# plot mse using the posterior mean *at the causal feature* as an estimate of b.
fits %>%
  filter(method %in% c('uvb_ser', 'vb_ser_corrected')) %>%
  pivot_wider(names_from = method, values_from=fit) %>%
  rowwise() %>%
  mutate(lbf_uvb_vs_corrected = mean(exp(uvb_ser$lbf - vb_ser_corrected$lbf))) %>%
  select(b0, b, X, lbf_uvb_vs_corrected) %>%
  group_by(b0, b, X) %>% summarise(lbf_uvb_vs_corrected = mean(lbf_uvb_vs_corrected))

`summarise()` has grouped output by 'b0', 'b'. You can override using the
`.groups` argument.

# A tibble: 80 × 4
# Groups:   b0, b [20]
      b0     b X               lbf_uvb_vs_corrected
   <dbl> <dbl> <chr>                          <dbl>
 1    -2   0.2 lengthscale=1                   1.09
 2    -2   0.2 lengthscale=10                  1.09
 3    -2   0.2 lengthscale=100                 1.06
 4    -2   0.2 lengthscale=200                 1.03
 5    -2   0.4 lengthscale=1                   1.12
 6    -2   0.4 lengthscale=10                  1.36
 7    -2   0.4 lengthscale=100                 1.04
 8    -2   0.4 lengthscale=200                 1.09
 9    -2   0.6 lengthscale=1                   1.52
10    -2   0.6 lengthscale=10                  1.40
# … with 70 more rows
…
