logistic_susie_v_tccm_ebnm_susie
…
html_tables$k1$gomf

# A tibble: 2,107 × 23
   experiment db    thresh susie.args       geneSet    component    alpha   beta
   <chr>      <chr>  <dbl> <list>           <chr>      <chr>        <dbl>  <dbl>
 1 k1         gomf     0.1 <named list [5]> GO:0003723 L1        1   e+ 0  0.689
 2 k1         gomf     0.1 <named list [5]> GO:0003676 L1        1.58e-21  0.315
 3 k1         gomf     0.1 <named list [5]> GO:1901363 L1        2.48e-26  0.224
 4 k1         gomf     0.1 <named list [5]> GO:0097159 L1        7.19e-27  0.216
 5 k1         gomf     0.1 <named list [5]> GO:0045296 L1        5.75e-30  0.502
 6 k1         gomf     0.1 <named list [5]> GO:0008135 L1        2.31e-30  0.791
 7 k1         gomf     0.1 <named list [5]> GO:0005509 L1        2.27e-30 -0.374
 8 k1         gomf     0.1 <named list [5]> GO:0003743 L1        2.04e-30  0.985
 9 k1         gomf     0.1 <named list [5]> GO:0009055 L1        6.26e-31  0.698
10 k1         gomf     0.1 <named list [5]> GO:0140098 L1        6.11e-31  0.403
# … with 2,097 more rows, and 15 more variables: beta.se <dbl>,
#   alpha_rank <int>, cumalpha <dbl>, in_cs <lgl>, active_cs <lgl>,
#   geneListSize <int>, geneSetSize <dbl>, overlap <dbl>, nGenes <int>,
#   propInList <dbl>, propInSet <dbl>, oddsRatio <dbl>, pHypergeometric <dbl>,
#   pFishersExact <dbl>, description <chr>
…
